Individual Assignment (WIP)
…
Data Preparation

Data Cleaning

Match names of locations in credit card and loyalty card transactions to check spelling

cc_loc <- cc %>% distinct(location) %>% arrange(location) 
loyalty_loc <- loyalty %>% distinct(location) %>% arrange(location) 
location <- full_join(cc_loc, loyalty_loc, by = "location") %>% 
            arrange(location)
location

# A tibble: 34 x 1
   location              
   <chr>                 
 1 Abila Airport         
 2 Abila Scrapyard       
 3 Abila Zacharo         
 4 Ahaggo Museum         
 5 Albert's Fine Clothing
 6 Bean There Done That  
 7 Brew've Been Served   
 8 Brewed Awakenings     
 9 Carlyle Chemical Inc. 
10 Chostus Hotel         
# ... with 24 more rows
…
location <- location %>% mutate(category = 
                    ifelse(location %in% food, "Food",
                    ifelse(location %in% retail, "Retail",
                    ifelse(location %in% gas, "Gas",
                    ifelse(location %in% leisure, "Leisure",
                    ifelse(location %in% company, "Company", NA)))))) 
location

# A tibble: 34 x 2
   location               category
   <chr>                  <chr>   
 1 Abila Airport          Leisure 
 2 Abila Scrapyard        Company 
 3 Abila Zacharo          Food    
 4 Ahaggo Museum          Leisure 
 5 Albert's Fine Clothing Retail  
 6 Bean There Done That   Food    
 7 Brew've Been Served    Food    
 8 Brewed Awakenings      Food    
 9 Carlyle Chemical Inc.  Company 
10 Chostus Hotel          Leisure 
# ... with 24 more rows
…
# Join datasets on date, location and price range
transact <- full_join(cc,loyalty, by = c("datestamp" = "timestamp","location","price")) 

# Find the unique pairs of credit card and loyalty card num
pairs <- transact %>% group_by(last4ccnum, loyaltynum) %>%
             count() %>%
             filter(n>1) %>%
             drop_na() %>%
             arrange(last4ccnum,loyaltynum)
pairs

# A tibble: 56 x 3
# Groups:   last4ccnum, loyaltynum [56]
   last4ccnum loyaltynum     n
   <chr>      <chr>      <int>
 1 1286       L3288         15
 2 1286       L3572         13
 3 1310       L8012         21
 4 1321       L4149         22
 5 1415       L7783         24
 6 1874       L4424         25
 7 1877       L3014         18
 8 2142       L9637         25
 9 2276       L3317         10
10 2418       L9018         20
# ... with 46 more rows
…
Enrich events with points of-interest - If the transaction time is within the time span of an event, it is assigned to that event

gps_name_diff %>%
              filter(id == "1", start == "start")

# A tibble: 96 x 13
# Groups:   id [1]
   diff       Timestamp           id      lat  long LastName FirstName
   <Period>   <dttm>              <chr> <dbl> <dbl> <chr>    <chr>    
 1 34M 57S    2014-01-06 07:57:01 1      36.1  24.9 Calixto  Nils     
 2 4H 12M 52S 2014-01-06 12:17:01 1      36.0  24.9 Calixto  Nils     
 3 58M 34S    2014-01-06 13:25:01 1      36.1  24.9 Calixto  Nils     
 4 4H 9M 34S  2014-01-06 17:44:01 1      36.0  24.9 Calixto  Nils     
 5 1H 47M 58S 2014-01-06 19:36:01 1      36.1  24.9 Calixto  Nils     
 6 6M 34S     2014-01-06 19:49:01 1      36.1  24.9 Calixto  Nils     
 7 38M 0S     2014-01-06 20:27:01 1      36.1  24.9 Calixto  Nils     
 8 1H 37M 31S 2014-01-06 22:11:01 1      36.1  24.9 Calixto  Nils     
 9 45M 59S    2014-01-06 23:01:01 1      36.0  24.9 Calixto  Nils     
10 2H 9M 0S   2014-01-07 01:10:01 1      36.0  24.9 Calixto  Nils     
# ... with 86 more rows, and 6 more variables:
#   CurrentEmploymentType <chr>, CurrentEmploymentTitle <chr>,
#   start <chr>, stop <chr>, home <chr>, geohash <chr>
…
